^C:\USERS\PC\SOURCE\REPOS\LAB2SYSTEMPR\LAB2SYSTEMPR\DEBUG\SOURCE.OBJ
C:\USERS\PC\SOURCE\REPOS\LAB2SYSTEMPR\DEBUG\LAB2SYSTEMPR.ILK
C:\USERS\PC\SOURCE\REPOS\LAB2SYSTEMPR\DEBUG\LAB2SYSTEMPR.EXE
C:\USERS\PC\SOURCE\REPOS\LAB2SYSTEMPR\DEBUG\LAB2SYSTEMPR.PDB
