^C:\USERS\PC\SOURCE\REPOS\LAB1SP1\LAB1SP1\SOURCE.CPP
C:\USERS\PC\SOURCE\REPOS\LAB1SP1\LAB1SP1\DEBUG\VC142.PDB
C:\USERS\PC\SOURCE\REPOS\LAB1SP1\LAB1SP1\DEBUG\VC142.IDB
C:\USERS\PC\SOURCE\REPOS\LAB1SP1\LAB1SP1\DEBUG\SOURCE.OBJ
