^C:\USERS\PC\SOURCE\REPOS\LAB1SP1\LAB1SP1\DEBUG\SOURCE.OBJ
C:\USERS\PC\SOURCE\REPOS\LAB1SP1\DEBUG\LAB1SP1.EXE
C:\USERS\PC\SOURCE\REPOS\LAB1SP1\DEBUG\LAB1SP1.ILK
C:\USERS\PC\SOURCE\REPOS\LAB1SP1\DEBUG\LAB1SP1.PDB
